Salle/IO/Practicas/P-1/disseny/simulation/qsim/Practica101.msim.vcd
$comment
	File created using the following command:
		vcd file Practica101.msim.vcd -direction
$end
$date
	Wed Feb 07 03:41:43 2024
$end
$version
	ModelSim Version 10.5b
$end
$timescale
	1ps
$end

$scope module Block2_vlg_vec_tst $end
$var reg 1 ! pin_name1 $end
$var reg 1 " pin_name2 $end
$var reg 1 # pin_name3 $end
$var wire 1 $ pin_name4 $end

$scope module i1 $end
$var wire 1 % gnd $end
$var wire 1 & vcc $end
$var wire 1 ' unknown $end
$var tri1 1 ( devclrn $end
$var tri1 1 ) devpor $end
$var tri1 1 * devoe $end
$var wire 1 + pin_name1~input_o $end
$var wire 1 , pin_name2~input_o $end
$var wire 1 - pin_name3~input_o $end
$var wire 1 . ~QUARTUS_CREATED_GND~I_combout $end
$var wire 1 / ~QUARTUS_CREATED_UNVM~~busy $end
$var wire 1 0 ~QUARTUS_CREATED_ADC1~~eoc $end
$var wire 1 1 pin_name4~output_o $end
$upscope $end
$upscope $end
$enddefinitions $end
#0
$dumpvars
1!
0"
0#
0$
0%
1&
x'
1(
1)
1*
1+
0,
0-
0.
z/
z0
01
$end
#100000
1#
1-
#200000
0!
0#
0-
0+
#400000
1#
1-
#500000
1"
1!
0#
0-
1+
1,
#700000
1#
1-
#800000
0"
0!
0+
0,
#900000
1!
1+
